﻿성명,나이,특기,신장
김선도,24,복싱,180
전일보,19,복싱,160.3
강백호,17,농구,198.5
서태웅,17,농구,197.5
채치수,19,농구,205
백두산,46,태권도,177.5
화랑,18,태권도,178.4
백마탄,21,없음,173
폴피닉스,40,무술,187
김선도,20,독서,160
레이디버그,16,변신,170
콩순이,6,엄마말안듣기,109.8
